﻿POPS = {
	s:STATE_LOWER_EGYPT = {
		region_state:EGY = {
			create_pop = {
				culture = misri
				size = 2318347
			}
			create_pop = {
				culture = misri
				religion = oriental_orthodox
				size = 132050
			}
			create_pop = {
				culture = turkish
				pop_type = aristocrats
				size = 20755
			}
			create_pop = {
				culture = turkish
				pop_type = bureaucrats
				size = 7591
			}
			create_pop = {
				culture = turkish
				pop_type = officers
				size = 520
			}
			create_pop = {
				culture = greek
				size = 20590
			}
			create_pop = {
				culture = north_caucasian
				size = 28588
			}
			create_pop = {
				culture = mashriqi
				size = 7126
			}
			create_pop = {
				culture = sephardic
				size = 26410
			}
			create_pop = {
				culture = armenian
				size = 2741
			}
			create_pop = {
				culture = sudanese
				size = 15500
			}
			create_pop = {
				culture = bedouin
				size = 11056
			}
			create_pop = {
				pop_type = slaves
				culture = sudanese
				size = 79230
			}
		}
	}
	s:STATE_UPPER_EGYPT = {
		region_state:EGY = {
			create_pop = {
				culture = misri
				size = 320008
			}
			create_pop = {
				culture = bedouin
				size = 27996
			}
			create_pop = {
				culture = misri
				religion = oriental_orthodox
				size = 37215
			}
			create_pop = {
				culture = turkish
				pop_type = aristocrats
				size = 1001
			}
			create_pop = {
				culture = turkish
				pop_type = bureaucrats
				size = 402
			}
			create_pop = {
				culture = sudanese
				size = 1021
			}
			create_pop = {
				pop_type = slaves
				culture = sudanese
				size = 4102
			}
		}
	}
	s:STATE_MIDDLE_EGYPT = {
		region_state:EGY = {
			create_pop = {
				culture = misri
				size = 942937
			}
			create_pop = {
				culture = misri
				religion = oriental_orthodox
				size = 176001
			}
			create_pop = {
				culture = turkish
				pop_type = aristocrats
				size = 4030
			}
			create_pop = {
				culture = turkish
				pop_type = bureaucrats
				size = 502
			}
			create_pop = {
				culture = bedouin
				size = 13020
			}
			create_pop = {
				culture = sephardic
				size = 2602
			}
			create_pop = {
				pop_type = slaves
				culture = sudanese
				size = 2601
			}
			create_pop = {
				pop_type = slaves
				culture = sudanese
				size = 16210
			}
		}
	}
	s:STATE_EGYPTIAN_DESERT = {
		region_state:EGY = {
			create_pop = {
				culture = bedouin
				size = 10948
			}
			create_pop = {
				culture = misri
				religion = oriental_orthodox
				size = 2184
			}
			create_pop = {
				culture = misri
				size = 13206
			}
			create_pop = {
				culture = sudanese
				size = 8123
			}
			create_pop = {
				pop_type = slaves
				culture = sudanese
				size = 1589
			}
		}
	}
	s:STATE_MATRUH = {
		region_state:EGY = {
			create_pop = {
				culture = bedouin
				size = 7801
			}
			create_pop = { # Siwi People
				culture = berber
				size = 2165
			}
			create_pop = {
				culture = misri
				size = 10982
			}
			create_pop = {
				culture = misri
				religion = oriental_orthodox
				size = 1102
			}
		}
	}
	s:STATE_SINAI = {
		region_state:EGY = {
			create_pop = {
				culture = misri
				size = 8012
			}
			create_pop = {
				culture = mashriqi
				size = 512
			}
			create_pop = {
				culture = bedouin
				size = 11120
			}
			create_pop = {
				culture = misri
				religion = oriental_orthodox
				size = 871
			}
			create_pop = {
				pop_type = slaves
				culture = sudanese
				size = 101
			}
		}
	}
	s:STATE_ERITREA = {
		region_state:EGY = {
			create_pop = {
				culture = tigray
				size = 75764
			}
			create_pop = {
				culture = misri
				size = 96
			}
			create_pop = {
				culture = tigray
				religion = sunni
				size = 64000
			}
			create_pop = {
				culture = bedouin
				size = 15900
			}
			create_pop = {
				culture = afar
				size = 32000
			}
			create_pop = {
				pop_type = slaves
				culture = sudanese
				size = 4200
			}
		}
		region_state:AWS = {
			create_pop = {
				culture = tigray
				religion = sunni
				size = 8000
			}
			create_pop = {
				culture = afar
				size = 8000
			}
			create_pop = {
				culture = somali
				size = 9000
			}
			create_pop = {
				pop_type = slaves
				culture = somali
				size = 3000
			}
		}
	}
	s:STATE_DONGOLA = {
		region_state:EGY = {
			create_pop = {
				culture = bedouin
				size = 156000
			}
			create_pop = {
				culture = sudanese
				size = 40004
			}
			create_pop = {
				culture = beja
				size = 82000
			}
			# 20-30% of Northern Sudan's population may have been enslaved in the early 19th century
			create_pop = {
				pop_type = slaves
				culture = sudanese
				size = 46000
			}
			create_pop = {
				pop_type = slaves
				culture = beja
				size = 40000
			}
		}
	}
	s:STATE_KORDOFAN = {
		region_state:EGY = {
			create_pop = {
				culture = sudanese
				size = 224396
			}
			create_pop = {
				culture = nuba
				size = 105608
			}
			create_pop = {
				culture = dinka
				size = 94004
			}
			create_pop = {
				pop_type = slaves
				culture = nuba
				size = 50400
			}
			create_pop = {
				pop_type = slaves
				culture = dinka
				size = 50400
			}
		}
	}
	s:STATE_DARFUR = {
		region_state:DFR = {
			create_pop = {
				culture = fur
				size = 199192
			}
			create_pop = {
				culture = dinka
				size = 14400
			}
			create_pop = {
				pop_type = slaves
				culture = dinka
				size = 14400
			}
			create_pop = {
				culture = bedouin
				size = 8000
			}
		}
	}
	s:STATE_BLUE_NILE = {
		region_state:EGY = {
			create_pop = {
				culture = sudanese
				size = 307600
			}
			create_pop = {
				culture = misri
				size = 1992
			}
			create_pop = {
				culture = nuba
				size = 344100
			}
			create_pop = {
				culture = dinka
				size = 127896
			}
			create_pop = {
				culture = bedouin
				size = 64004
			}
			create_pop = {
				culture = nuer
				size = 60000
			}
			create_pop = {
				culture = beja
				size = 16000
			}
			create_pop = {
				pop_type = slaves
				culture = sudanese
				size = 228000
			}
		}
	}
	s:STATE_MARRAKECH = {
		region_state:MOR = {
			create_pop = {
				culture = maghrebi
				size = 686700
			}
			create_pop = {
				culture = sephardic
				size = 42500
			}
			create_pop = {
				culture = berber
				size = 243996
			}
			create_pop = {
				pop_type = slaves
				culture = bambara
				size = 56000
			}
		}
	}
	s:STATE_FEZ = {
		region_state:MOR = {
			create_pop = {
				culture = maghrebi
				size = 878696
			}
			create_pop = {
				culture = berber
				size = 116004
			}
			create_pop = {
				culture = sephardic
				size = 70504
			}
			create_pop = {
				pop_type = slaves
				culture = bambara
				size = 62000
			}
		}
	}
	s:STATE_AL_RIF = {
		region_state:MOR = {
			create_pop = {
				culture = maghrebi
				size = 374188
			}
			create_pop = {
				culture = sephardic
				size = 12800
			}
			create_pop = {
				culture = berber
				size = 71800
			}
			create_pop = {
				pop_type = slaves
				culture = bambara
				size = 34000
			}
		}
		region_state:IBE = {
			create_pop = {
				culture = maghrebi
				size = 46400
			}
			create_pop = {
				culture = spanish
				size = 1000
			}
			create_pop = {
				culture = berber
				size = 5000
			}
		}
	}
	s:STATE_INNER_MOROCCO = {
		region_state:MOR = {
			create_pop = {
				culture = berber
				size = 322000
			}
			create_pop = {
				culture = bedouin
				size = 27008
			}
			create_pop = {
				culture = maghrebi
				size = 222396
			}
			create_pop = {
				pop_type = slaves
				culture = bambara
				size = 24000
			}
		}
	}
	s:STATE_ALGIERS = {
		region_state:FRA = {
			create_pop = {
				culture = maghrebi
				size = 830800
			}
			create_pop = {
				culture = sephardic
				size = 11004
			}
			create_pop = {
				culture = berber
				size = 211004
			}
			create_pop = {
				culture = french
				size = 31992
			}
			create_pop = {
				culture = bambara
				size = 25000
			}
		}
	}
	s:STATE_CONSTANTINE = {
		region_state:ALD = {
			create_pop = {
				culture = maghrebi
				size = 208804
			}
			create_pop = {
				culture = sephardic
				size = 3996
			}
			create_pop = {
				culture = berber
				size = 208596
			}
			create_pop = {
				culture = tuareg
				size = 7996
			}
			create_pop = {
				culture = maghrebi
				religion = shiite
				size = 8000
			}
			create_pop = {
				pop_type = slaves
				culture = bambara
				size = 23000
			}
		}
	}
	s:STATE_TLEMCEN = {
		region_state:ALD = {
			create_pop = {
				culture = maghrebi
				size = 509200
			}
			create_pop = {
				culture = sephardic
				size = 1600
			}
			create_pop = {
				culture = berber
				size = 242800
			}
			create_pop = {
				pop_type = slaves
				culture = berber
				size = 10000
			}
			create_pop = {
				pop_type = slaves
				culture = bambara
				size = 31000
			}
		}
	}
	s:STATE_TUNISIA = {
		region_state:TUN = {
			create_pop = {
				culture = maghrebi
				size = 1165804
			}
			create_pop = {
				culture = sephardic
				size = 19204
			}
			create_pop = {
				culture = maltese
				size = 2000
			}
			create_pop = {
				culture = south_italian
				size = 2000
			}
			create_pop = {
				culture = berber
				size = 100000
			}
			create_pop = {
				culture = turkish
				pop_type = aristocrats
				size = 2000
			}
			create_pop = {
				pop_type = slaves
				culture = bambara
				size = 11000
			}
			create_pop = {
				pop_type = slaves
				culture = equatorial_bantu
				size = 13000
			}
		}
	}
	s:STATE_TRIPOLI = {
		region_state:TRI = {
			create_pop = {
				culture = maghrebi
				size = 169628
			}
			create_pop = {
				culture = bedouin
				size = 283796
			}
			create_pop = {
				culture = sephardic
				size = 5996
			}
			create_pop = {
				culture = berber
				size = 36000
			}
			create_pop = {
				pop_type = slaves
				culture = equatorial_bantu
				size = 16800
			}
		}
	}
	s:STATE_LIBYA = {
		region_state:TRI = {
			create_pop = {
				culture = bedouin
				size = 171604
			}
			create_pop = {
				culture = berber
				size = 60000
			}
			create_pop = {
				culture = maghrebi
				size = 173132
			}
			create_pop = {
				culture = sephardic
				size = 2996
			}
			create_pop = {
				pop_type = slaves
				culture = equatorial_bantu
				size = 20000
			}
		}
	}
	s:STATE_LIBYAN_DESERT = {
		region_state:TRI = {
			create_pop = {
				culture = bedouin
				size = 30000
			}
			create_pop = {
				culture = tuareg
				size = 4000
			}
			create_pop = {
				culture = teda
				size = 8000
			}
			create_pop = {
				pop_type = slaves
				culture = equatorial_bantu
				size = 6000
			}
		}
	}
	s:STATE_SAHARA = {
		region_state:TUA = {
			create_pop = {
				culture = berber
				size = 4000
			}
			create_pop = {
				culture = tuareg
				size = 40000
			}
			create_pop = {
				pop_type = slaves
				culture = berber
				size = 4000
			}
		}
	}
	s:STATE_EAST_SAHARA = {
		region_state:AHG = {
			create_pop = {
				culture = tuareg
				size = 45600
			}
			create_pop = {
				pop_type = slaves
				culture = tuareg
				size = 2400
			}
			create_pop = {
				culture = berber
				size = 8004
			}
		}
	}
	s:STATE_WEST_SAHARA = {
		region_state:SAH = {
			create_pop = {
				culture = berber
				size = 20000
			}
			create_pop = {
				culture = bedouin
				size = 15000
			}
			create_pop = {
				culture = maures
				size = 8000
			}
			create_pop = {
				pop_type = slaves
				culture = bedouin
				size = 5000
			}
		}
	}
	s:STATE_MAURITANIA = {
		region_state:OUA = {
			create_pop = {
				culture = maures
				size = 52000
			}
			create_pop = {
				culture = haratin
				size = 22000
			}
			create_pop = {
				pop_type = slaves
				culture = haratin
				size = 10000
			}
		}
		region_state:TRZ = {
			create_pop = {
				culture = maures
				size = 80000
			}
			create_pop = {
				culture = haratin
				size = 40000
			}
			create_pop = {
				pop_type = slaves
				culture = haratin
				size = 4000
			}
		}
		region_state:FTR = {
			create_pop = {
				culture = fulbe
				size = 10000
			}
			create_pop = {
				culture = maures
				size = 33000
			}
			create_pop = {
				culture = haratin
				size = 28000
			}
			create_pop = {
				pop_type = slaves
				culture = fulbe
				size = 2000
			}
			create_pop = {
				pop_type = slaves
				culture = maures
				size = 3000
			}
			create_pop = {
				pop_type = slaves
				culture = haratin
				size = 4000
			}
		}
	}
	s:STATE_INNER_MAURITANIA = {
		region_state:OUA = {
			create_pop = {
				culture = maures
				size = 36000
			}
			create_pop = {
				culture = mande
				size = 12000
			}
			create_pop = {
				culture = bedouin
				size = 4000
			}
			create_pop = {
				pop_type = slaves
				culture = mande
				size = 4400
			}
		}
	}
	s:STATE_EASTERN_MALI = {
		region_state:MSN = {
			create_pop = {
				culture = bambara
				size = 435108
			}
			create_pop = {
				culture = senufo
				size = 32000
			}
			create_pop = {
				culture = mande
				size = 375996
			}
			create_pop = {
				culture = fulbe
				size = 111996
			}
			create_pop = {
				pop_type = slaves
				culture = bambara
				size = 25000
			}
		}
	}
	s:STATE_WESTERN_MALI = {
		region_state:SGU = {
			create_pop = {
				culture = fulbe
				size = 40004
			}
			create_pop = {
				culture = bambara
				size = 67996
			}
			create_pop = {
				pop_type = slaves
				culture = mande
				size = 112000
			}
		}
		region_state:KRT = {
			create_pop = {
				culture = fulbe
				size = 140000
			}
			create_pop = {
				culture = bambara
				size = 68000
			}
			create_pop = {
				culture = mande
				size = 18000
			}
			create_pop = {
				pop_type = slaves
				culture = mande
				size = 14000
			}
		}
	}
	s:STATE_TIMBUKTU = {
		region_state:ADG = {
			create_pop = {
				culture = songhai
				size = 14000
			}
			create_pop = {
				pop_type = slaves
				culture = songhai
				size = 2000
			}
			create_pop = {
				culture = fulbe
				size = 15000
			}
			create_pop = {
				pop_type = slaves
				culture = fulbe
				size = 5000
			}
			create_pop = {
				culture = tuareg
				size = 48396
			}
		}
		region_state:MSN = {
			create_pop = {
				culture = songhai
				size = 140000
			}
			create_pop = {
				culture = mande
				size = 76400
			}
			create_pop = {
				culture = fulbe
				size = 20000
			}
			create_pop = {
				pop_type = slaves
				culture = songhai
				size = 16000
			}
		}
	}
	s:STATE_NIGER = {
		region_state:AIR = {
			create_pop = {
				culture = tuareg
				size = 104000
			}
			create_pop = {
				pop_type = slaves
				culture = tuareg
				size = 5200
			}
			create_pop = {
				culture = hausa
				size = 45000
			}
			create_pop = {
				pop_type = slaves
				culture = hausa
				size = 3000
			}
			create_pop = {
				culture = teda
				size = 8000
			}
			create_pop = {
				culture = fulbe
				size = 20000
			}
		}
	}
	s:STATE_CHAD = {
		region_state:WAD = {
			create_pop = {
				culture = bedouin
				size = 84000
			}
			create_pop = {
				culture = equatorial_bantu
				size = 49000
			}
			create_pop = {
				culture = kanuri
				size = 28000
			}
			create_pop = {
				culture = fur
				size = 32060
			}
			create_pop = {
				culture = tuareg
				size = 8000
			}
			create_pop = {
				pop_type = slaves
				culture = equatorial_bantu
				size = 15000
			}
		}
		region_state:TBI = {
			create_pop = {
				culture = teda
				size = 108904
			}
			create_pop = {
				culture = bedouin
				size = 20000
			}
			create_pop = {
				pop_type = slaves
				culture = teda
				size = 5000
			}
			create_pop = {
				pop_type = slaves
				culture = equatorial_bantu
				size = 6000
			}
		}
	}
}